{
    "AWSAccessKeyId": "AKIAJ73K37MGOUN6LWFA",
    "AWSSecretAccessKey": "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",
    "SMTP": "smtp://no-reply%40kodein.io:n01234@mail.cloudaccess.net:587",
    "MailFrom": "No Reply<no-reply@kodein.io>"
}
